%YAML 1.1
%TAG !u! tag:unity3d.com,2011:
--- !u!1045 &1
EditorBuildSettings:
  m_ObjectHideFlags: 0
  serializedVersion: 2
  m_Scenes:
  - enabled: 1
    path: Assets/Scenes/MapScene.unity
    guid: 46248209baecdd7469254dbf0cd49181
  - enabled: 1
    path: Assets/Scenes/LevelScene.unity
    guid: 78785f20837f25847845ff093f0200c9
  m_configObjects: {}
